%YAML 1.1
%TAG !u! tag:unity3d.com,2011:
--- !u!78 &1
TagManager:
  serializedVersion: 2
  tags:
  - ground
  - Crate
  - Enemy
  - Wall
  - Obstacle
  - Bullet
  - BombPickup
  - ExplosionFX
  - HealthBar
  - Coin
  layers:
  - Default
  - TransparentFX
  - Ignore Raycast
  - 
  - Water
  - UI
  - 
  - 
  - Bombs
  - Player
  - Enemies
  - Pickups
  - Ground
  - Collision Layer
  - 
  - 
  - 
  - 
  - 
  - 
  - 
  - 
  - 
  - 
  - 
  - 
  - 
  - 
  - 
  - 
  - 
  - 
  m_SortingLayers:
  - name: Default
    uniqueID: 0
    locked: 0
  - name: Default
    uniqueID: 3363470833
    locked: 0
  - name: Background
    uniqueID: 1535931219
    locked: 0
  - name: Character
    uniqueID: 2511236001
    locked: 0
  - name: Foreground
    uniqueID: 1024582385
    locked: 0
  - name: UI
    uniqueID: 149272721
    locked: 0
  - name: Food
    uniqueID: 500390271
    locked: 0
